{
  "project_info": {
    "project_number": "1065296230959",
    "firebase_url": "https://com-rosbank-android-russia.firebaseio.com",
    "project_id": "com-rosbank-android-russia",
    "storage_bucket": "com-rosbank-android-russia.appspot.com"
  },
  "client": [
    {
      "client_info": {
        "mobilesdk_app_id": "1:1065296230959:android:91bfb651d2ddd1d7",
        "android_client_info": {
          "package_name": "com.rosbank.android.russia"
        }
      },
      "oauth_client": [
        {
          "client_id": "1065296230959-pojsvffo4je7r0dtim2fjpl1k0p9k17k.apps.googleusercontent.com",
          "client_type": 3
        }
      ],
      "api_key": [
        {
          "current_key": "AIzaSyDUoHX4gtLm-B3RQFlOqVnFEupRNJlNqjY"
        }
      ],
      "services": {
        "analytics_service": {
          "status": 1
        },
        "appinvite_service": {
          "status": 1,
          "other_platform_oauth_client": []
        },
        "ads_service": {
          "status": 2
        }
      }
    }
  ],
  "configuration_version": "1"
}